{
    "COMMANDS" : {
        "PLAY" : {
            "TITLE": "Reproduzir",
            "MESSAGE": "A iniciar a reprodução"
        },
        "PAUSE" : {
            "TITLE": "Pausa",
            "MESSAGE": "A fazer pausa"
        },
        "RESUME" : {
            "TITLE": "Continuar",
            "MESSAGE": "A continuar a reprodução"
        },
        "STOP" : {
            "TITLE": "Parar",
            "MESSAGE": "Irá parar a reprodução actual"
        },
        "CANCEL" : {
            "TITLE": "Cancelar",
            "MESSAGE": "Comando cancelado"
        },
        "CONFIRM" : {
            "TITLE": "Confirmar",
            "MESSAGE": "Comando confirmado"
        },
        "UNDO" : {
            "TITLE": "Desfazer",
            "MESSAGE": "A desfazer"
        },
        "STATUS" : {
            "TITLE": "Estado",
            "MESSAGE": "A actualizar estado"
        },
        "SEEK" : {
            "TITLE": "Posicionar",
            "BACKWARD": ["Irá recuar ", "{{offset}}", " para ", "{{to}}"],
            "FORWARD": ["Irá avançar ", "{{offset}}", " para ", "{{to}}"],
            "MOVE_TO": ["Irá posicionar-se em ", "{{to}}"],
            "ERROR_AFTER_DURATION": "O tempo especificado é maior que a duração do video actual",
            "ERROR_NEGATIVE": "Não pode ir para um valor menor que 0"
        },
        "GENERAL" : {
            "WHAT_YOUR_REQUEST": "qual é o seu pedido?",
            "PROCESSING": "a processar"
        }
    },
    "BUTTONS": {
        "ACTIONS": {
            "PLAY": "Reproduzir",
            "QUEUE": "Adicionar",
            "SUBTITLES": "Legendas",
            "WATCHED": "Visto",
            "NOT_WATCHED": "Não Visto",
            "HISTORY": "Histórico",
            "GALLERY": "Galeria",
            "CAST": "Elenco",
            "IMDB": "Imdb",
            "INFO": "Info",
            "ADD": "Adicionar",
            "REMOVE": "Remover",
            "SELECT": "Selecionar",
            "UNSELECT": "Descelecionar",
            "MOVELEFT": "Move Esq.",
            "MOVERIGHT": "Move Dir.",
            "MOVETOP": "Para Topo",
            "MOVEBOTTOM": "Para Baixo",
            "ADD_TO_RESYNC": "Adic. ao Resync",
            "REMOVE_FROM_RESYNC": "Remo. do Resync"
        },
        "GENERAL": {
            "SAVE": "Guardar",
            "YES": "Sim",
            "NO": "Não",
            "CONFIRM": "Confirmar",
            "CANCEL": "Cancelar",
            "ADD": "Adicionar",
            "DELETE": "Apagar",
            "CREATE": "Criar"
        }
    },
    "PRESETS": {
        "NEW": "Novo",
        "TITLE":"Grupos"
    },
    "SORT": {
        "FIELDS": {
            "TITLE": "Title",
            "YEAR": "Year",
            "RATING": "Rating",
            "RUNTIME": "Runtime",
            "ADDED_AT": "Added Date",
            "LAST_PLAYED_AT": "Last Played",
            "USER_RANK": "User Rank"
        }
    },
    "COLLECTION": {
        "NONE": "Nenhuma",
        "TITLE": "Colecções",
        "MANAGE": "Gerir Colecções",
        "NEW": "Nova Coleccção",
        "DELETE": {
            "TITLE": "Confirma a eliminação da colecção?",
            "MESSAGE": "Tem a certeza que pretende eliminar a colecção "
        }
    },
    "SHOWS": {
        "DETAILS": {
            "MARK_ALL_WATCHED": {
                "TITLE": "Marcar como vistos",
                "MESSAGE": "Quer realmente marcar todos os episódios da série como vistos?"
            },
            "MARK_ALL_NOT_WATCHED": {
                "TITLE": "Marcar como não vistos",
                "MESSAGE": "Quer realmente marcar todos os episódios da série como NÃO vistos?"
            }
        }
    },
    "SECTIONS": {
        "GENERAL": {
            "LOADING": "a carregar..."
        },
        "EPISODES": {
            "ALLWATCHED": "Marcar como vistos",
            "NONEWATCHED": "Marcar como não vistos"
        }
    },
    "SUBTITLES" : {
        "TITLE": "LEGENDAS",
        "RELEASE_NAME": "Nome",
        "DOWNLOADS": "Downloads",
        "LANGUAGE": "Língua",
        "FORMAT": "Formato",
        "PUBLISHED_AT": "Publicado em",
        "LOADING": "a carregar...",
        "NO_SUBTITLES": "sem legendas...",
        "LOCAL": "LOCAIS",
        "REMOTE": "REMOTAS",
        "CLOSE": "FECHAR",
        "NEW_NAME": "Novo nome",
        "VALIDATE": "Validar",
        "BINARY": "Binário",
        "POINT": "Ponto",
        "DELAY": "Atraso"
    },
    "MEDIACAST" : {
        "TITLE": "Elenco",
        "LOADING": "A carregar...",
        "NO_PEOPLE": "Sem atores...",
        "CLOSE": "Fechar",
        "SHOW_ALL": "Mostrar todos",
        "SHOW_MAIN_CAST": "Mostrar elenco principal",
        "PEOPLE": "atores"
    },
    "COMMAND_CENTER": {
        "SHOW": "Mostrar",
        "HIDE": "Esconder"
    },
    "REMOTE": {
        "GROUPS": "Grupos",
        "MANAGE": "Gestão",
        "SUBTITLES": "Legendas",
        "VOLUME": "Volume"
    },
    "HISTORY": {
        "MODAL": {
            "TITLE": "Introduza as fontes que pretende enviar"
        },
        "NO_SESSIONS": "Sem sessões para mostrar"
    },
    "SETTINGS": {
        "SYNC": {
            "TITLE": "Sincronizar",
            "INSERT": "Inserir novos",
            "CLEAN": "Limpar e actualizar",
            "REPAIR": "Reparar a base de dados",
            "MODAL_TITLE": "Opções de sincronização",
            "DRY_RUN": "Correr sem alterações",
            "CLEAN_MISSING": "Remover inexistentes",
            "REFETCH_EXISTING": "Reobter existentes",
            "REFETCH_INCOMPLETE": "Reobter incompletos",
            "UPDATE_MOVED": "Atualizar movidos",
            "ADVANCED_OPTIONS": "Opções avançadas",
            "CACHE_WRITE": "Escrever na cache",
            "CACHE_READ": "Ler da cache"
        },
        "API": {
            "TITLE": "Servidor de API"
        },
        "FILTERS": {
            "TITLE": "Filtros",
            "CLEAR": "Limpar todos os filtros gravados"
        },
        "LANGUAGE": {
            "TITLE": "Língua"
        }
    }
}
